…
# filter the data for chr8 and the ecDNA coordinate range
filtered_csv <- csv_file %>%
  filter(chromosome == "chr8", start >= 126425747, end <= 127997820)

# add length and midpoint of origins
filtered_csv <- filtered_csv %>%
  mutate(length = end - start,
         midpoint = (end + start)/2)

# display
print(filtered_csv)
```

    ## # A tibble: 185 × 9
    ##    chromosome     start       end Name_of_origin Normalised_SNS-seq_s…¹ Quantile
    ##    <chr>          <dbl>     <dbl> <chr>                           <dbl> <chr>   
    ##  1 chr8       126450489 126450630 HO_146435                       10.9  Q6      
    ##  2 chr8       126453349 126453478 HO_146436                        5.62 Q9      
    ##  3 chr8       126460006 126460094 HO_146437                        3.67 Q10     
    ##  4 chr8       126465342 126465558 HO_146438                        6.87 Q8      
    ##  5 chr8       126469361 126469590 HO_146439                       11.0  Q6      
    ##  6 chr8       126472821 126472896 HO_146440                       12.4  Q6      
    ##  7 chr8       126476605 126476707 HO_146441                        5    Q9      
    ##  8 chr8       126485647 126485956 HO_146442                        7.2  Q8      
    ##  9 chr8       126488434 126488555 HO_146443                        7.66 Q8      
    ## 10 chr8       126493078 126493227 HO_146444                        7.94 Q8      
    ## # ℹ 175 more rows
    ## # ℹ abbreviated name: ¹​`Normalised_SNS-seq_score`
    ## # ℹ 3 more variables: Number_of_samples_origin_called <dbl>, length <dbl>,
    ## #   midpoint <dbl>
…
